Dolt & R
…
… just as explicit collection

collect(query)

## # A tibble: 80 x 4
##    IPRange                               CountryCode2Lett… Registry AssignedDate
##    <chr>                                 <chr>             <chr>           <dbl>
##  1 1000::-1fff:ffff:ffff:ffff:ffff:ffff… ZZ                iana        838857600
##  2 100::-1ff:ffff:ffff:ffff:ffff:ffff:f… ZZ                iana        838857600
##  3 2000::-2000:ffff:ffff:ffff:ffff:ffff… ZZ                iana        838857600
##  4 2001:1000::-2001:11ff:ffff:ffff:ffff… ZZ                iana        838857600
##  5 2001:4e00::-2001:4fff:ffff:ffff:ffff… ZZ                iana        838857600
##  6 2001:6000::-2001:7fff:ffff:ffff:ffff… ZZ                iana        838857600
##  7 2001:c000::-2001:ffff:ffff:ffff:ffff… ZZ                iana        838857600
##  8 2610:1000::-2610:1fff:ffff:ffff:ffff… ZZ                iana        838857600
##  9 2610:2000::-2610:3fff:ffff:ffff:ffff… ZZ                iana        838857600
## 10 2610:200::-2610:3ff:ffff:ffff:ffff:f… ZZ                iana        838857600
## # … with 70 more rows
…
owner <- "dolthub" 
repo <- "ip-to-country"
branch <- "master"
url <- glue("https://www.dolthub.com/api/v1alpha1/{owner}/{repo}/{branch}")

httr::GET(url, query = list(q = str_sql)) %>% 
    httr::content() %>% 
    {.$rows} %>% 
    jsonlite::toJSON() %>% 
    jsonlite::fromJSON() %>% 
    as_tibble() %>% 
    mutate_all(as.character)

## # A tibble: 80 x 4
##    IPRange                               CountryCode2Lett… Registry AssignedDate
##    <chr>                                 <chr>             <chr>    <chr>       
##  1 1000::-1fff:ffff:ffff:ffff:ffff:ffff… ZZ                iana     838857600   
##  2 100::-1ff:ffff:ffff:ffff:ffff:ffff:f… ZZ                iana     838857600   
##  3 2000::-2000:ffff:ffff:ffff:ffff:ffff… ZZ                iana     838857600   
##  4 2001:1000::-2001:11ff:ffff:ffff:ffff… ZZ                iana     838857600   
##  5 2001:4e00::-2001:4fff:ffff:ffff:ffff… ZZ                iana     838857600   
##  6 2001:6000::-2001:7fff:ffff:ffff:ffff… ZZ                iana     838857600   
##  7 2410::-241f:ffff:ffff:ffff:ffff:ffff… ZZ                iana     838857600   
##  8 2420::-243f:ffff:ffff:ffff:ffff:ffff… ZZ                iana     838857600   
##  9 2440::-247f:ffff:ffff:ffff:ffff:ffff… ZZ                iana     838857600   
## 10 2480::-24ff:ffff:ffff:ffff:ffff:ffff… ZZ                iana     838857600   
## # … with 70 more rows
…
